# MTL written from E:\3d\3D-Objekte\spaceship_repair_bay\modo\textures\corridor_u.obj
newmtl decorations
Kd 0.8 0.8 0.8
Ns 32
d 1
illum 2
Ka 0 0 0
Ks 1.2 1.2 1.2
map_Kd E:\3d\3D-Objekte\spaceship_repair_bay\modo\textures\decorations_d.tga
map_Ka E:\3d\3D-Objekte\spaceship_repair_bay\modo\textures\decorations_e.tga
newmtl floor04
Kd 0.8 0.8 0.8
Ns 32
d 1
illum 2
Ka 0 0 0
Ks 1.2 1.2 1.2
map_Kd E:\3d\3D-Objekte\spaceship_repair_bay\modo\textures\floor04_d.tga
newmtl grate02
Kd 0.8 0.8 0.8
Ns 256
d 1
illum 2
Ka 0 0 0
Ks 0.2 0.2 0.2
map_Kd E:\3d\3D-Objekte\spaceship_repair_bay\modo\textures\grate02_d.tga
newmtl lights
Kd 0.790588 0.60549 0.423529
Ns 32
d 1
illum 2
Ka 0 0 0
Ks 1.2 1.2 1.2
map_Kd E:\3d\3D-Objekte\spaceship_repair_bay\modo\textures\lights_d.tga
newmtl panel03
Kd 0.8 0.8 0.8
Ns 32
d 1
illum 2
Ka 0 0 0
Ks 0.730176 0.973352 1.2
map_Kd E:\3d\3D-Objekte\spaceship_repair_bay\modo\textures\panel03_d.tga
newmtl pipe_tex
Kd 0.8 0.8 0.8
Ns 32
d 1
illum 2
Ka 0 0 0
Ks 0.2 0.2 0.2
map_Kd E:\3d\3D-Objekte\spaceship_repair_bay\modo\textures\pipe_tex_d.tga
newmtl rollgate
Kd 0.8 0.8 0.8
Ns 256
d 1
illum 2
Ka 0 0 0
Ks 0.2 0.2 0.2
map_Kd E:\3d\3D-Objekte\spaceship_repair_bay\modo\textures\rollgate_d.tga
newmtl spk_cam
Kd 0.8 0.8 0.8
Ns 32
d 1
illum 2
Ka 0 0 0
Ks 0.2 0.2 0.2
map_Kd E:\3d\3D-Objekte\spaceship_repair_bay\modo\textures\spk_cam_d.tga
