xof 0303txt 0032

// DirectX 8.0 file
// Creator: Ultimate Unwrap3D Pro v3.27
// Website: http://www.unwrap3d.com
// Time: Thu Mar 29 20:08:53 2012

// Start of Templates

template VertexDuplicationIndices {
 <b8d65549-d7c9-4995-89cf-53a9a8b031e3>
 DWORD nIndices;
 DWORD nOriginalVertices;
 array DWORD indices[nIndices];
}

template FVFData {
 <b6e70a0e-8ef9-4e83-94ad-ecc8b0c04897>
 DWORD dwFVF;
 DWORD nDWords;
 array DWORD data[nDWords];
}

template XSkinMeshHeader {
 <3CF169CE-FF7C-44ab-93C0-F78F62D172E2>
 WORD nMaxSkinWeightsPerVertex;
 WORD nMaxSkinWeightsPerFace;
 WORD nBones;
}

template SkinWeights {
 <6F0D123B-BAD2-4167-A0D0-80224F25FABB>
 STRING transformNodeName;
 DWORD nWeights;
 array DWORD vertexIndices[nWeights];
 array FLOAT weights[nWeights];
 Matrix4x4 matrixOffset;
}

template AnimTicksPerSecond {
 <9E415A43-7BA6-4a73-8743-B73D47E88476>
 DWORD AnimTicksPerSecond;
}

AnimTicksPerSecond {
 4800;
}

// Start of Frames

   Frame Falloff {
      FrameTransformMatrix {
       1.000000, 0.000000, 0.000000, 0.000000,
       0.000000, 1.000000, 0.000000, 0.000000,
       0.000000, 0.000000, 1.000000, 0.000000,
       0.000000, 0.000000, 0.000000, 1.000000;;
      }

   }

   Frame door_frame2_open_Layer1 {
      FrameTransformMatrix {
       1.000000, 0.000000, 0.000000, 0.000000,
       0.000000, 1.000000, 0.000000, 0.000000,
       0.000000, 0.000000, 1.000000, 0.000000,
       0.000000, 0.000000, 0.000000, 1.000000;;
      }

      Mesh door_frame2_open_Layer1 {
       58;
       0.672945; 0.059944; 0.151499;,
       -1.076100; -0.001394; 0.151499;,
       1.076100; -0.001394; 0.151499;,
       -0.640662; 0.059944; 0.151499;,
       0.672945; 1.841965; -0.151499;,
       1.076100; -0.001394; -0.151499;,
       0.672945; 0.059944; -0.151499;,
       1.076100; 2.150806; -0.151499;,
       1.076100; 2.150806; 0.151499;,
       1.076100; -0.001394; -0.000000;,
       1.076100; 2.150806; -0.000000;,
       1.076100; -0.001394; 0.151499;,
       -0.640662; 1.841965; -0.151499;,
       -1.076100; 2.150806; -0.151499;,
       -1.076100; 2.150806; 0.151499;,
       1.076100; 2.150806; -0.000000;,
       -1.076100; 2.150806; -0.000000;,
       1.076100; 2.150806; 0.151499;,
       -1.076100; -0.001394; -0.151499;,
       -0.640662; 0.059944; -0.151499;,
       -1.076100; -0.001394; 0.151499;,
       -1.076100; 2.150806; -0.000000;,
       -1.076100; -0.001394; -0.000000;,
       -1.076100; 2.150806; 0.151499;,
       1.076100; 2.150806; -0.151499;,
       1.076100; -0.001394; -0.151499;,
       0.672945; 1.841965; 0.151499;,
       1.076100; 2.150806; 0.151499;,
       -1.076100; -0.001394; -0.151499;,
       -1.076100; 2.150806; -0.151499;,
       -0.640662; 1.841965; 0.151499;,
       -1.076100; 2.150806; 0.151499;,
       -1.076100; 2.150806; -0.151499;,
       1.076100; 2.150806; -0.151499;,
       -0.640662; 1.841965; -0.151499;,
       -0.640662; 0.059944; -0.000000;,
       -0.640662; 0.059944; -0.151499;,
       -0.640662; 1.841965; -0.000000;,
       0.672945; 0.059944; -0.000000;,
       -0.640662; 0.059944; 0.151499;,
       0.672945; 0.059944; 0.151499;,
       -0.640662; 0.059944; -0.000000;,
       0.672945; 1.841965; -0.000000;,
       0.672945; 0.059944; 0.151499;,
       0.672945; 1.841965; 0.151499;,
       0.672945; 0.059944; -0.000000;,
       -0.640662; 1.841965; -0.000000;,
       0.672945; 1.841965; 0.151499;,
       -0.640662; 1.841965; 0.151499;,
       0.672945; 1.841965; -0.000000;,
       -0.640662; 1.841965; 0.151499;,
       -0.640662; 0.059944; 0.151499;,
       -0.640662; 0.059944; -0.151499;,
       0.672945; 0.059944; -0.151499;,
       0.672945; 1.841965; -0.151499;,
       -0.640662; 1.841965; -0.151499;,
       0.672945; 0.059944; -0.151499;,
       0.672945; 1.841965; -0.151499;;
       44;
       3;0, 1, 2;,
       3;1, 0, 3;,
       3;4, 5, 6;,
       3;5, 4, 7;,
       3;8, 9, 10;,
       3;9, 8, 11;,
       3;7, 12, 13;,
       3;12, 7, 4;,
       3;14, 15, 16;,
       3;15, 14, 17;,
       3;18, 12, 19;,
       3;12, 18, 13;,
       3;20, 21, 22;,
       3;21, 20, 23;,
       3;18, 6, 5;,
       3;6, 18, 19;,
       3;9, 24, 10;,
       3;24, 9, 25;,
       3;2, 26, 0;,
       3;26, 2, 27;,
       3;21, 28, 22;,
       3;28, 21, 29;,
       3;30, 1, 3;,
       3;1, 30, 31;,
       3;15, 32, 16;,
       3;32, 15, 33;,
       3;30, 27, 31;,
       3;27, 30, 26;,
       3;34, 35, 36;,
       3;35, 34, 37;,
       3;38, 39, 40;,
       3;39, 38, 41;,
       3;42, 43, 44;,
       3;43, 42, 45;,
       3;46, 47, 48;,
       3;47, 46, 49;,
       3;35, 50, 51;,
       3;50, 35, 37;,
       3;52, 38, 53;,
       3;38, 52, 41;,
       3;54, 46, 55;,
       3;46, 54, 49;,
       3;56, 42, 57;,
       3;42, 56, 45;;

      MeshNormals {
       58;
       -0.534522; 0.267261; 0.801784;,
       -0.447214; 0.000000; 0.894427;,
       0.316228; 0.000000; 0.948683;,
       0.333333; 0.666667; 0.666667;,
       -0.267261; -0.534522; -0.801784;,
       0.316228; 0.000000; -0.948683;,
       -0.534522; 0.267261; -0.801784;,
       0.534522; 0.267261; -0.801784;,
       0.534522; 0.267261; 0.801784;,
       1.000000; 0.000000; 0.000000;,
       0.447214; 0.894427; 0.000000;,
       0.316228; 0.000000; 0.948683;,
       0.436436; -0.218218; -0.872872;,
       -0.333333; 0.666667; -0.666667;,
       -0.333333; 0.666667; 0.666667;,
       0.447214; 0.894427; 0.000000;,
       -0.894427; 0.447214; 0.000000;,
       0.534522; 0.267261; 0.801784;,
       -0.447214; 0.000000; -0.894427;,
       0.333333; 0.666667; -0.666667;,
       -0.447214; 0.000000; 0.894427;,
       -0.894427; 0.447214; 0.000000;,
       -1.000000; 0.000000; 0.000000;,
       -0.333333; 0.666667; 0.666667;,
       0.534522; 0.267261; -0.801784;,
       0.316228; 0.000000; -0.948683;,
       -0.267261; -0.534522; 0.801784;,
       0.534522; 0.267261; 0.801784;,
       -0.447214; 0.000000; -0.894427;,
       -0.333333; 0.666667; -0.666667;,
       0.436436; -0.218218; 0.872872;,
       -0.333333; 0.666667; 0.666667;,
       -0.333333; 0.666667; -0.666667;,
       0.534522; 0.267261; -0.801784;,
       0.436436; -0.218218; -0.872872;,
       0.894427; 0.447214; 0.000000;,
       0.333333; 0.666667; -0.666667;,
       0.447214; -0.894427; 0.000000;,
       -0.447214; 0.894427; 0.000000;,
       0.333333; 0.666667; 0.666667;,
       -0.534522; 0.267261; 0.801784;,
       0.894427; 0.447214; 0.000000;,
       -0.894427; -0.447214; 0.000000;,
       -0.534522; 0.267261; 0.801784;,
       -0.267261; -0.534522; 0.801784;,
       -0.447214; 0.894427; 0.000000;,
       0.447214; -0.894427; 0.000000;,
       -0.267261; -0.534522; 0.801784;,
       0.436436; -0.218218; 0.872872;,
       -0.894427; -0.447214; 0.000000;,
       0.436436; -0.218218; 0.872872;,
       0.333333; 0.666667; 0.666667;,
       0.333333; 0.666667; -0.666667;,
       -0.534522; 0.267261; -0.801784;,
       -0.267261; -0.534522; -0.801784;,
       0.436436; -0.218218; -0.872872;,
       -0.534522; 0.267261; -0.801784;,
       -0.267261; -0.534522; -0.801784;;
       44;
       3;0, 1, 2;,
       3;1, 0, 3;,
       3;4, 5, 6;,
       3;5, 4, 7;,
       3;8, 9, 10;,
       3;9, 8, 11;,
       3;7, 12, 13;,
       3;12, 7, 4;,
       3;14, 15, 16;,
       3;15, 14, 17;,
       3;18, 12, 19;,
       3;12, 18, 13;,
       3;20, 21, 22;,
       3;21, 20, 23;,
       3;18, 6, 5;,
       3;6, 18, 19;,
       3;9, 24, 10;,
       3;24, 9, 25;,
       3;2, 26, 0;,
       3;26, 2, 27;,
       3;21, 28, 22;,
       3;28, 21, 29;,
       3;30, 1, 3;,
       3;1, 30, 31;,
       3;15, 32, 16;,
       3;32, 15, 33;,
       3;30, 27, 31;,
       3;27, 30, 26;,
       3;34, 35, 36;,
       3;35, 34, 37;,
       3;38, 39, 40;,
       3;39, 38, 41;,
       3;42, 43, 44;,
       3;43, 42, 45;,
       3;46, 47, 48;,
       3;47, 46, 49;,
       3;35, 50, 51;,
       3;50, 35, 37;,
       3;52, 38, 53;,
       3;38, 52, 41;,
       3;54, 46, 55;,
       3;46, 54, 49;,
       3;56, 42, 57;,
       3;42, 56, 45;;
      }

      MeshTextureCoords {
       58;
       0.906339; 0.485750;,
       0.500000; 0.500000;,
       1.000000; 0.500000;,
       0.601161; 0.485750;,
       0.593661; 0.071750;,
       0.500000; 0.500000;,
       0.593661; 0.485750;,
       0.500000; 0.000000;,
       0.998550; 0.000000;,
       0.929550; 0.500000;,
       0.929550; 0.000000;,
       0.998550; 0.500000;,
       0.898839; 0.071750;,
       1.000000; 0.000000;,
       1.044088; 0.545000;,
       1.007912; 1.000000;,
       1.007912; 0.545000;,
       1.044088; 1.000000;,
       1.000000; 0.500000;,
       0.898839; 0.485750;,
       0.998550; 0.500000;,
       0.929550; 0.000000;,
       0.929550; 0.500000;,
       0.998550; 0.000000;,
       0.998550; 0.000000;,
       0.998550; 0.500000;,
       0.906339; 0.071750;,
       1.000000; 0.000000;,
       0.998550; 0.500000;,
       0.998550; 0.000000;,
       0.601161; 0.071750;,
       0.500000; 0.000000;,
       1.044088; 0.545000;,
       1.044088; 1.000000;,
       0.559167; 0.072509;,
       0.514433; 0.487646;,
       0.559167; 0.487646;,
       0.514433; 0.072509;,
       1.101012; 0.526501;,
       1.400988; 0.553499;,
       1.101012; 0.553499;,
       1.400988; 0.526501;,
       0.514433; 0.072509;,
       0.559167; 0.487646;,
       0.559167; 0.072509;,
       0.514433; 0.487646;,
       1.400988; 0.526501;,
       1.101012; 0.553499;,
       1.400988; 0.553499;,
       1.101012; 0.526501;,
       0.559167; 0.072509;,
       0.559167; 0.487646;,
       1.400988; 0.553499;,
       1.101012; 0.553499;,
       1.101012; 0.553499;,
       1.400988; 0.553499;,
       0.559167; 0.487646;,
       0.559167; 0.072509;;
      }

      FVFData {
       258;
       116;
       0,
       1065353216,
       0,
       1065353216,
       0,
       1065353216,
       0,
       1065353216,
       0,
       1065353216,
       0,
       1065353216,
       0,
       1065353216,
       0,
       1065353216,
       0,
       1065353216,
       0,
       1065353216,
       0,
       1065353216,
       0,
       1065353216,
       0,
       1065353216,
       0,
       1065353216,
       0,
       1065353216,
       0,
       1065353216,
       0,
       1065353216,
       0,
       1065353216,
       0,
       1065353216,
       0,
       1065353216,
       0,
       1065353216,
       0,
       1065353216,
       0,
       1065353216,
       0,
       1065353216,
       0,
       1065353216,
       0,
       1065353216,
       0,
       1065353216,
       0,
       1065353216,
       0,
       1065353216,
       0,
       1065353216,
       0,
       1065353216,
       0,
       1065353216,
       0,
       1065353216,
       0,
       1065353216,
       0,
       1065353216,
       0,
       1065353216,
       0,
       1065353216,
       0,
       1065353216,
       0,
       1065353216,
       0,
       1065353216,
       0,
       1065353216,
       0,
       1065353216,
       0,
       1065353216,
       0,
       1065353216,
       0,
       1065353216,
       0,
       1065353216,
       0,
       1065353216,
       0,
       1065353216,
       0,
       1065353216,
       0,
       1065353216,
       0,
       1065353216,
       0,
       1065353216,
       0,
       1065353216,
       0,
       1065353216,
       0,
       1065353216,
       0,
       1065353216,
       0,
       1065353216,
       0,
       1065353216;
      }

      MeshMaterialList {
       1;
       44;
       0,
       0,
       0,
       0,
       0,
       0,
       0,
       0,
       0,
       0,
       0,
       0,
       0,
       0,
       0,
       0,
       0,
       0,
       0,
       0,
       0,
       0,
       0,
       0,
       0,
       0,
       0,
       0,
       0,
       0,
       0,
       0,
       0,
       0,
       0,
       0,
       0,
       0,
       0,
       0,
       0,
       0,
       0,
       0;

       Material doors_monitor {
        1.000000; 1.000000; 1.000000; 1.000000;;
        128.000000;
        0.200000; 0.200000; 0.200000;;
        0.000000; 0.000000; 0.000000;;

        TextureFilename {
         "D:\\new packs\\test\\doors_monitor_d.tga";
        }
       }

      }

      XSkinMeshHeader {
       1;
       1;
       1;
      }

      SkinWeights {
       "Falloff";
       8;
       35,
       37,
       38,
       41,
       42,
       45,
       46,
       49;
       0.000000,
       0.000000,
       0.000000,
       0.000000,
       0.000000,
       0.000000,
       0.000000,
       0.000000;
          1.000000, -0.000000, 0.000000, 0.000000,
          -0.000000, 1.000000, -0.000000, 0.000000,
          0.000000, -0.000000, 1.000000, 0.000000,
          -0.000000, -0.000000, -0.000000, 1.000000;;
      }


     }
   }
