# MTL written from E:\3d\3D-Objekte\sci-fi\scifi_lowpoly\meshes\door_frame2.obj
newmtl doors_monitor
Kd 0.8 0.8 0.8
Ns 32
d 1
illum 2
Ka 0 0 0
Ks 0.2 0.2 0.2
map_Kd E:\3d\3D-Objekte\sci-fi\scifi_lowpoly\meshes\doors_monitor_d.tga
