xof 0303txt 0032

// DirectX 8.0 file
// Creator: Ultimate Unwrap3D Pro v3.27
// Website: http://www.unwrap3d.com
// Time: Thu Mar 29 20:08:43 2012

// Start of Templates

template VertexDuplicationIndices {
 <b8d65549-d7c9-4995-89cf-53a9a8b031e3>
 DWORD nIndices;
 DWORD nOriginalVertices;
 array DWORD indices[nIndices];
}

template FVFData {
 <b6e70a0e-8ef9-4e83-94ad-ecc8b0c04897>
 DWORD dwFVF;
 DWORD nDWords;
 array DWORD data[nDWords];
}

template XSkinMeshHeader {
 <3CF169CE-FF7C-44ab-93C0-F78F62D172E2>
 WORD nMaxSkinWeightsPerVertex;
 WORD nMaxSkinWeightsPerFace;
 WORD nBones;
}

template SkinWeights {
 <6F0D123B-BAD2-4167-A0D0-80224F25FABB>
 STRING transformNodeName;
 DWORD nWeights;
 array DWORD vertexIndices[nWeights];
 array FLOAT weights[nWeights];
 Matrix4x4 matrixOffset;
}

template AnimTicksPerSecond {
 <9E415A43-7BA6-4a73-8743-B73D47E88476>
 DWORD AnimTicksPerSecond;
}

AnimTicksPerSecond {
 4800;
}

// Start of Frames

   Frame Falloff {
      FrameTransformMatrix {
       1.000000, 0.000000, 0.000000, 0.000000,
       0.000000, 1.000000, 0.000000, 0.000000,
       0.000000, 0.000000, 1.000000, 0.000000,
       0.000000, 0.000000, 0.000000, 1.000000;;
      }

   }

   Frame door_frame2_Layer1 {
      FrameTransformMatrix {
       1.000000, 0.000000, 0.000000, 0.000000,
       0.000000, 1.000000, 0.000000, 0.000000,
       0.000000, 0.000000, 1.000000, 0.000000,
       0.000000, 0.000000, 0.000000, 1.000000;;
      }

      Mesh door_frame2_Layer1 {
       74;
       -0.640662; 1.841965; -0.151499;,
       -0.640662; 0.059944; -0.008700;,
       -0.640662; 0.059944; -0.151499;,
       -0.640662; 1.841965; -0.008700;,
       0.672945; 0.059944; 0.151499;,
       -1.076100; -0.001394; 0.151499;,
       1.076100; -0.001394; 0.151499;,
       -0.640662; 0.059944; 0.151499;,
       0.993625; 2.000000; 0.008699;,
       -1.026375; 0.000000; 0.008699;,
       0.993625; -0.000000; 0.008699;,
       -1.026375; 2.000000; 0.008699;,
       0.672945; 1.841965; -0.151499;,
       1.076100; -0.001394; -0.151499;,
       0.672945; 0.059944; -0.151499;,
       1.076100; 2.150806; -0.151499;,
       1.076100; 2.150806; 0.151499;,
       1.076100; -0.001394; -0.000000;,
       1.076100; 2.150806; -0.000000;,
       1.076100; -0.001394; 0.151499;,
       0.672945; 0.059944; 0.008700;,
       -0.640662; 0.059944; 0.151499;,
       0.672945; 0.059944; 0.151499;,
       -0.640662; 0.059944; 0.008700;,
       -0.640662; 1.841965; -0.151499;,
       -1.076100; 2.150806; -0.151499;,
       -1.076100; 2.150806; 0.151499;,
       1.076100; 2.150806; -0.000000;,
       -1.076100; 2.150806; -0.000000;,
       1.076100; 2.150806; 0.151499;,
       0.672945; 1.841965; 0.008700;,
       0.672945; 0.059944; 0.151499;,
       0.672945; 1.841965; 0.151499;,
       0.672945; 0.059944; 0.008700;,
       -1.076100; -0.001394; -0.151499;,
       -0.640662; 0.059944; -0.151499;,
       -1.076100; -0.001394; 0.151499;,
       -1.076100; 2.150806; -0.000000;,
       -1.076100; -0.001394; -0.000000;,
       -1.076100; 2.150806; 0.151499;,
       -0.640662; 1.841965; 0.008700;,
       0.672945; 1.841965; 0.151499;,
       -0.640662; 1.841965; 0.151499;,
       0.672945; 1.841965; 0.008700;,
       -1.026375; 0.000000; -0.008699;,
       0.993625; 2.000000; -0.008699;,
       0.993625; 0.000000; -0.008699;,
       -1.026375; 2.000000; -0.008699;,
       -0.640662; 0.059944; 0.008700;,
       -0.640662; 1.841965; 0.151499;,
       -0.640662; 0.059944; 0.151499;,
       -0.640662; 1.841965; 0.008700;,
       1.076100; 2.150806; -0.151499;,
       1.076100; -0.001394; -0.151499;,
       -0.640662; 0.059944; -0.151499;,
       0.672945; 0.059944; -0.008700;,
       0.672945; 0.059944; -0.151499;,
       -0.640662; 0.059944; -0.008700;,
       0.672945; 1.841965; 0.151499;,
       1.076100; 2.150806; 0.151499;,
       -1.076100; 2.150806; -0.151499;,
       1.076100; 2.150806; -0.151499;,
       0.672945; 0.059944; -0.151499;,
       0.672945; 1.841965; -0.008700;,
       0.672945; 1.841965; -0.151499;,
       0.672945; 0.059944; -0.008700;,
       -0.640662; 1.841965; 0.151499;,
       -1.076100; 2.150806; 0.151499;,
       -1.076100; -0.001394; -0.151499;,
       -1.076100; 2.150806; -0.151499;,
       0.672945; 1.841965; -0.151499;,
       -0.640662; 1.841965; -0.008700;,
       -0.640662; 1.841965; -0.151499;,
       0.672945; 1.841965; -0.008700;;
       48;
       3;0, 1, 2;,
       3;1, 0, 3;,
       3;4, 5, 6;,
       3;5, 4, 7;,
       3;8, 9, 10;,
       3;9, 8, 11;,
       3;12, 13, 14;,
       3;13, 12, 15;,
       3;16, 17, 18;,
       3;17, 16, 19;,
       3;20, 21, 22;,
       3;21, 20, 23;,
       3;15, 24, 25;,
       3;24, 15, 12;,
       3;26, 27, 28;,
       3;27, 26, 29;,
       3;30, 31, 32;,
       3;31, 30, 33;,
       3;34, 24, 35;,
       3;24, 34, 25;,
       3;36, 37, 38;,
       3;37, 36, 39;,
       3;40, 41, 42;,
       3;41, 40, 43;,
       3;34, 14, 13;,
       3;14, 34, 35;,
       3;44, 45, 46;,
       3;45, 44, 47;,
       3;48, 49, 50;,
       3;49, 48, 51;,
       3;17, 52, 18;,
       3;52, 17, 53;,
       3;54, 55, 56;,
       3;55, 54, 57;,
       3;6, 58, 4;,
       3;58, 6, 59;,
       3;27, 60, 28;,
       3;60, 27, 61;,
       3;62, 63, 64;,
       3;63, 62, 65;,
       3;66, 59, 67;,
       3;59, 66, 58;,
       3;37, 68, 38;,
       3;68, 37, 69;,
       3;70, 71, 72;,
       3;71, 70, 73;,
       3;66, 5, 7;,
       3;5, 66, 67;;

      MeshNormals {
       74;
       0.436436; -0.218218; -0.872872;,
       0.894427; 0.447214; 0.000000;,
       0.333333; 0.666667; -0.666667;,
       0.447214; -0.894427; 0.000000;,
       -0.534522; 0.267261; 0.801784;,
       -0.447214; 0.000000; 0.894427;,
       0.316228; 0.000000; 0.948683;,
       0.333333; 0.666667; 0.666667;,
       0.000000; 0.000000; 1.000000;,
       0.000000; 0.000000; 1.000000;,
       0.000000; 0.000000; 1.000000;,
       0.000000; 0.000000; 1.000000;,
       -0.267261; -0.534522; -0.801784;,
       0.316228; 0.000000; -0.948683;,
       -0.534522; 0.267261; -0.801784;,
       0.534522; 0.267261; -0.801784;,
       0.534522; 0.267261; 0.801784;,
       1.000000; 0.000000; 0.000000;,
       0.447214; 0.894427; 0.000000;,
       0.316228; 0.000000; 0.948683;,
       -0.447214; 0.894427; 0.000000;,
       0.333333; 0.666667; 0.666667;,
       -0.534522; 0.267261; 0.801784;,
       0.894427; 0.447214; 0.000000;,
       0.436436; -0.218218; -0.872872;,
       -0.333333; 0.666667; -0.666667;,
       -0.333333; 0.666667; 0.666667;,
       0.447214; 0.894427; 0.000000;,
       -0.894427; 0.447214; 0.000000;,
       0.534522; 0.267261; 0.801784;,
       -0.894427; -0.447214; 0.000000;,
       -0.534522; 0.267261; 0.801784;,
       -0.267261; -0.534522; 0.801784;,
       -0.447214; 0.894427; 0.000000;,
       -0.447214; 0.000000; -0.894427;,
       0.333333; 0.666667; -0.666667;,
       -0.447214; 0.000000; 0.894427;,
       -0.894427; 0.447214; 0.000000;,
       -1.000000; 0.000000; 0.000000;,
       -0.333333; 0.666667; 0.666667;,
       0.447214; -0.894427; 0.000000;,
       -0.267261; -0.534522; 0.801784;,
       0.436436; -0.218218; 0.872872;,
       -0.894427; -0.447214; 0.000000;,
       0.000000; 0.000000; -1.000000;,
       0.000000; 0.000000; -1.000000;,
       0.000000; 0.000000; -1.000000;,
       0.000000; 0.000000; -1.000000;,
       0.894427; 0.447214; 0.000000;,
       0.436436; -0.218218; 0.872872;,
       0.333333; 0.666667; 0.666667;,
       0.447214; -0.894427; 0.000000;,
       0.534522; 0.267261; -0.801784;,
       0.316228; 0.000000; -0.948683;,
       0.333333; 0.666667; -0.666667;,
       -0.447214; 0.894427; 0.000000;,
       -0.534522; 0.267261; -0.801784;,
       0.894427; 0.447214; 0.000000;,
       -0.267261; -0.534522; 0.801784;,
       0.534522; 0.267261; 0.801784;,
       -0.333333; 0.666667; -0.666667;,
       0.534522; 0.267261; -0.801784;,
       -0.534522; 0.267261; -0.801784;,
       -0.894427; -0.447214; 0.000000;,
       -0.267261; -0.534522; -0.801784;,
       -0.447214; 0.894427; 0.000000;,
       0.436436; -0.218218; 0.872872;,
       -0.333333; 0.666667; 0.666667;,
       -0.447214; 0.000000; -0.894427;,
       -0.333333; 0.666667; -0.666667;,
       -0.267261; -0.534522; -0.801784;,
       0.447214; -0.894427; 0.000000;,
       0.436436; -0.218218; -0.872872;,
       -0.894427; -0.447214; 0.000000;;
       48;
       3;0, 1, 2;,
       3;1, 0, 3;,
       3;4, 5, 6;,
       3;5, 4, 7;,
       3;8, 9, 10;,
       3;9, 8, 11;,
       3;12, 13, 14;,
       3;13, 12, 15;,
       3;16, 17, 18;,
       3;17, 16, 19;,
       3;20, 21, 22;,
       3;21, 20, 23;,
       3;15, 24, 25;,
       3;24, 15, 12;,
       3;26, 27, 28;,
       3;27, 26, 29;,
       3;30, 31, 32;,
       3;31, 30, 33;,
       3;34, 24, 35;,
       3;24, 34, 25;,
       3;36, 37, 38;,
       3;37, 36, 39;,
       3;40, 41, 42;,
       3;41, 40, 43;,
       3;34, 14, 13;,
       3;14, 34, 35;,
       3;44, 45, 46;,
       3;45, 44, 47;,
       3;48, 49, 50;,
       3;49, 48, 51;,
       3;17, 52, 18;,
       3;52, 17, 53;,
       3;54, 55, 56;,
       3;55, 54, 57;,
       3;6, 58, 4;,
       3;58, 6, 59;,
       3;27, 60, 28;,
       3;60, 27, 61;,
       3;62, 63, 64;,
       3;63, 62, 65;,
       3;66, 59, 67;,
       3;59, 66, 58;,
       3;37, 68, 38;,
       3;68, 37, 69;,
       3;70, 71, 72;,
       3;71, 70, 73;,
       3;66, 5, 7;,
       3;5, 66, 67;;
      }

      MeshTextureCoords {
       74;
       0.559167; 0.072509;,
       0.514433; 0.487646;,
       0.559167; 0.487646;,
       0.514433; 0.072509;,
       0.906339; 0.485750;,
       0.500000; 0.500000;,
       1.000000; 0.500000;,
       0.601161; 0.485750;,
       0.961250; 0.038750;,
       0.538750; 0.461250;,
       0.961250; 0.461250;,
       0.538750; 0.038750;,
       0.593661; 0.071750;,
       0.500000; 0.500000;,
       0.593661; 0.485750;,
       0.500000; 0.000000;,
       0.998550; 0.000000;,
       0.929550; 0.500000;,
       0.929550; 0.000000;,
       0.998550; 0.500000;,
       1.101012; 0.526501;,
       1.400988; 0.553499;,
       1.101012; 0.553499;,
       1.400988; 0.526501;,
       0.898839; 0.071750;,
       1.000000; 0.000000;,
       1.044088; 0.545000;,
       1.007912; 1.000000;,
       1.007912; 0.545000;,
       1.044088; 1.000000;,
       0.514433; 0.072509;,
       0.559167; 0.487646;,
       0.559167; 0.072509;,
       0.514433; 0.487646;,
       1.000000; 0.500000;,
       0.898839; 0.485750;,
       0.998550; 0.500000;,
       0.929550; 0.000000;,
       0.929550; 0.500000;,
       0.998550; 0.000000;,
       1.400988; 0.526501;,
       1.101012; 0.553499;,
       1.400988; 0.553499;,
       1.101012; 0.526501;,
       0.961250; 0.461250;,
       0.538750; 0.038750;,
       0.538750; 0.461250;,
       0.961250; 0.038750;,
       0.514433; 0.487646;,
       0.559167; 0.072509;,
       0.559167; 0.487646;,
       0.514433; 0.072509;,
       0.998550; 0.000000;,
       0.998550; 0.500000;,
       1.400988; 0.553499;,
       1.101012; 0.526501;,
       1.101012; 0.553499;,
       1.400988; 0.526501;,
       0.906339; 0.071750;,
       1.000000; 0.000000;,
       1.044088; 0.545000;,
       1.044088; 1.000000;,
       0.559167; 0.487646;,
       0.514433; 0.072509;,
       0.559167; 0.072509;,
       0.514433; 0.487646;,
       0.601161; 0.071750;,
       0.500000; 0.000000;,
       0.998550; 0.500000;,
       0.998550; 0.000000;,
       1.101012; 0.553499;,
       1.400988; 0.526501;,
       1.400988; 0.553499;,
       1.101012; 0.526501;;
      }

      FVFData {
       258;
       148;
       0,
       1065353216,
       0,
       1065353216,
       0,
       1065353216,
       0,
       1065353216,
       0,
       1065353216,
       0,
       1065353216,
       0,
       1065353216,
       0,
       1065353216,
       0,
       1065353216,
       0,
       1065353216,
       0,
       1065353216,
       0,
       1065353216,
       0,
       1065353216,
       0,
       1065353216,
       0,
       1065353216,
       0,
       1065353216,
       0,
       1065353216,
       0,
       1065353216,
       0,
       1065353216,
       0,
       1065353216,
       0,
       1065353216,
       0,
       1065353216,
       0,
       1065353216,
       0,
       1065353216,
       0,
       1065353216,
       0,
       1065353216,
       0,
       1065353216,
       0,
       1065353216,
       0,
       1065353216,
       0,
       1065353216,
       0,
       1065353216,
       0,
       1065353216,
       0,
       1065353216,
       0,
       1065353216,
       0,
       1065353216,
       0,
       1065353216,
       0,
       1065353216,
       0,
       1065353216,
       0,
       1065353216,
       0,
       1065353216,
       0,
       1065353216,
       0,
       1065353216,
       0,
       1065353216,
       0,
       1065353216,
       0,
       1065353216,
       0,
       1065353216,
       0,
       1065353216,
       0,
       1065353216,
       0,
       1065353216,
       0,
       1065353216,
       0,
       1065353216,
       0,
       1065353216,
       0,
       1065353216,
       0,
       1065353216,
       0,
       1065353216,
       0,
       1065353216,
       0,
       1065353216,
       0,
       1065353216,
       0,
       1065353216,
       0,
       1065353216,
       0,
       1065353216,
       0,
       1065353216,
       0,
       1065353216,
       0,
       1065353216,
       0,
       1065353216,
       0,
       1065353216,
       0,
       1065353216,
       0,
       1065353216,
       0,
       1065353216,
       0,
       1065353216,
       0,
       1065353216,
       0,
       1065353216,
       0,
       1065353216,
       0,
       1065353216;
      }

      MeshMaterialList {
       1;
       48;
       0,
       0,
       0,
       0,
       0,
       0,
       0,
       0,
       0,
       0,
       0,
       0,
       0,
       0,
       0,
       0,
       0,
       0,
       0,
       0,
       0,
       0,
       0,
       0,
       0,
       0,
       0,
       0,
       0,
       0,
       0,
       0,
       0,
       0,
       0,
       0,
       0,
       0,
       0,
       0,
       0,
       0,
       0,
       0,
       0,
       0,
       0,
       0;

       Material doors_monitor {
        1.000000; 1.000000; 1.000000; 1.000000;;
        128.000000;
        0.200000; 0.200000; 0.200000;;
        0.000000; 0.000000; 0.000000;;

        TextureFilename {
         "D:\\new packs\\test\\doors_monitor_d.tga";
        }
       }

      }

      XSkinMeshHeader {
       1;
       1;
       1;
      }

      SkinWeights {
       "Falloff";
       8;
       8,
       9,
       10,
       11,
       44,
       45,
       46,
       47;
       0.000000,
       0.000000,
       0.000000,
       0.000000,
       0.000000,
       0.000000,
       0.000000,
       0.000000;
          1.000000, -0.000000, 0.000000, 0.000000,
          -0.000000, 1.000000, -0.000000, 0.000000,
          0.000000, -0.000000, 1.000000, 0.000000,
          -0.000000, -0.000000, -0.000000, 1.000000;;
      }


     }
   }
