xof 0303txt 0032

// DirectX 8.0 file
// Creator: Ultimate Unwrap3D Pro v3.27
// Website: http://www.unwrap3d.com
// Time: Thu Mar 29 20:08:33 2012

// Start of Templates

template VertexDuplicationIndices {
 <b8d65549-d7c9-4995-89cf-53a9a8b031e3>
 DWORD nIndices;
 DWORD nOriginalVertices;
 array DWORD indices[nIndices];
}

template FVFData {
 <b6e70a0e-8ef9-4e83-94ad-ecc8b0c04897>
 DWORD dwFVF;
 DWORD nDWords;
 array DWORD data[nDWords];
}

template XSkinMeshHeader {
 <3CF169CE-FF7C-44ab-93C0-F78F62D172E2>
 WORD nMaxSkinWeightsPerVertex;
 WORD nMaxSkinWeightsPerFace;
 WORD nBones;
}

template SkinWeights {
 <6F0D123B-BAD2-4167-A0D0-80224F25FABB>
 STRING transformNodeName;
 DWORD nWeights;
 array DWORD vertexIndices[nWeights];
 array FLOAT weights[nWeights];
 Matrix4x4 matrixOffset;
}

template AnimTicksPerSecond {
 <9E415A43-7BA6-4a73-8743-B73D47E88476>
 DWORD AnimTicksPerSecond;
}

AnimTicksPerSecond {
 4800;
}

// Start of Frames

   Frame Falloff {
      FrameTransformMatrix {
       1.000000, 0.000000, 0.000000, 0.000000,
       0.000000, 1.000000, 0.000000, 0.000000,
       0.000000, 0.000000, 1.000000, 0.000000,
       0.000000, 0.000000, 0.000000, 1.000000;;
      }

   }

   Frame door_closed_Layer1 {
      FrameTransformMatrix {
       1.000000, 0.000000, 0.000000, 0.000000,
       0.000000, 1.000000, 0.000000, 0.000000,
       0.000000, 0.000000, 1.000000, 0.000000,
       0.000000, 0.000000, 0.000000, 1.000000;;
      }

      Mesh door_closed_Layer1 {
       56;
       0.720000; 0.000000; 0.000000;,
       -0.700000; 0.000000; 0.045000;,
       -0.700000; 0.000000; -0.000000;,
       0.720000; 0.000000; 0.045000;,
       -1.010000; 2.000000; 0.045000;,
       -0.700000; 2.000000; 0.100000;,
       -0.700000; 2.000000; 0.045000;,
       -1.010000; 2.000000; 0.100000;,
       -1.010000; 0.000000; 0.045000;,
       -1.010000; 0.000000; -0.000000;,
       -0.700000; 2.000000; 0.045000;,
       -0.700000; 0.000000; 0.100000;,
       -0.700000; 0.000000; 0.045000;,
       -0.700000; 2.000000; 0.100000;,
       -1.010000; 0.000000; -0.000000;,
       -1.010000; 2.000000; 0.045000;,
       -1.010000; 2.000000; -0.000000;,
       -1.010000; 0.000000; 0.045000;,
       -1.010000; 0.000000; 0.100000;,
       -0.700000; 0.000000; 0.100000;,
       -1.010000; 2.000000; -0.000000;,
       -0.700000; 2.000000; -0.000000;,
       0.720000; 2.000000; 0.045000;,
       1.010000; 2.000000; 0.100000;,
       1.010000; 2.000000; 0.045000;,
       0.720000; 2.000000; 0.100000;,
       0.720000; 2.000000; 0.000000;,
       1.010000; 2.000000; 0.045000;,
       1.010000; 0.000000; 0.100000;,
       1.010000; 0.000000; 0.045000;,
       1.010000; 2.000000; 0.100000;,
       1.010000; 2.000000; 0.000000;,
       1.010000; 0.000000; 0.045000;,
       0.720000; 0.000000; 0.100000;,
       1.010000; 0.000000; 0.100000;,
       0.720000; 2.000000; 0.100000;,
       1.010000; 0.000000; 0.100000;,
       1.010000; 2.000000; 0.100000;,
       0.720000; 0.000000; 0.100000;,
       1.010000; 2.000000; 0.000000;,
       1.010000; 0.000000; 0.000000;,
       0.720000; 0.000000; 0.045000;,
       0.720000; 2.000000; 0.100000;,
       0.720000; 2.000000; 0.045000;,
       0.720000; 0.000000; 0.100000;,
       -0.700000; 0.000000; 0.100000;,
       -1.010000; 2.000000; 0.100000;,
       -1.010000; 0.000000; 0.100000;,
       -0.700000; 2.000000; 0.100000;,
       1.010000; 0.000000; 0.000000;,
       -0.700000; 0.000000; 0.045000;,
       0.720000; 2.000000; 0.045000;,
       -0.700000; 2.000000; 0.045000;,
       0.720000; 0.000000; 0.045000;,
       -1.010000; 2.000000; 0.100000;,
       -1.010000; 0.000000; 0.100000;;
       38;
       3;0, 1, 2;,
       3;1, 0, 3;,
       3;4, 5, 6;,
       3;5, 4, 7;,
       3;2, 8, 9;,
       3;8, 2, 1;,
       3;10, 11, 12;,
       3;11, 10, 13;,
       3;14, 15, 16;,
       3;15, 14, 17;,
       3;1, 18, 8;,
       3;18, 1, 19;,
       3;20, 6, 21;,
       3;6, 20, 4;,
       3;22, 23, 24;,
       3;23, 22, 25;,
       3;21, 22, 26;,
       3;22, 21, 6;,
       3;27, 28, 29;,
       3;28, 27, 30;,
       3;26, 24, 31;,
       3;24, 26, 22;,
       3;32, 33, 3;,
       3;33, 32, 34;,
       3;35, 36, 37;,
       3;36, 35, 38;,
       3;39, 29, 40;,
       3;29, 39, 27;,
       3;41, 42, 43;,
       3;42, 41, 44;,
       3;45, 46, 47;,
       3;46, 45, 48;,
       3;49, 3, 0;,
       3;3, 49, 32;,
       3;50, 51, 52;,
       3;51, 50, 53;,
       3;17, 54, 15;,
       3;54, 17, 55;;

      MeshNormals {
       56;
       0.000000; -1.000000; 0.000000;,
       0.182574; -0.912871; 0.365148;,
       0.000000; -1.000000; 0.000000;,
       -0.436436; -0.872872; 0.218218;,
       -0.707107; 0.707107; 0.000000;,
       0.408248; 0.816497; 0.408248;,
       0.436436; 0.872872; 0.218218;,
       -0.666667; 0.333333; 0.666667;,
       -0.707107; -0.707107; 0.000000;,
       -0.894427; -0.447214; 0.000000;,
       0.436436; 0.872872; 0.218218;,
       0.666667; -0.333333; 0.666667;,
       0.182574; -0.912871; 0.365148;,
       0.408248; 0.816497; 0.408248;,
       -0.894427; -0.447214; 0.000000;,
       -0.707107; 0.707107; 0.000000;,
       -0.447214; 0.894427; 0.000000;,
       -0.707107; -0.707107; 0.000000;,
       -0.408248; -0.816497; 0.408248;,
       0.666667; -0.333333; 0.666667;,
       -0.447214; 0.894427; 0.000000;,
       0.000000; 1.000000; 0.000000;,
       -0.182574; 0.912871; 0.365148;,
       0.408248; 0.816497; 0.408248;,
       0.707107; 0.707107; 0.000000;,
       -0.666667; 0.333333; 0.666667;,
       0.000000; 1.000000; 0.000000;,
       0.707107; 0.707107; 0.000000;,
       0.666667; -0.333333; 0.666667;,
       0.707107; -0.707107; 0.000000;,
       0.408248; 0.816497; 0.408248;,
       0.894427; 0.447214; 0.000000;,
       0.707107; -0.707107; 0.000000;,
       -0.408248; -0.816497; 0.408248;,
       0.666667; -0.333333; 0.666667;,
       -0.666667; 0.333333; 0.666667;,
       0.666667; -0.333333; 0.666667;,
       0.408248; 0.816497; 0.408248;,
       -0.408248; -0.816497; 0.408248;,
       0.894427; 0.447214; 0.000000;,
       0.447214; -0.894427; 0.000000;,
       -0.436436; -0.872872; 0.218218;,
       -0.666667; 0.333333; 0.666667;,
       -0.182574; 0.912871; 0.365148;,
       -0.408248; -0.816497; 0.408248;,
       0.666667; -0.333333; 0.666667;,
       -0.666667; 0.333333; 0.666667;,
       -0.408248; -0.816497; 0.408248;,
       0.408248; 0.816497; 0.408248;,
       0.447214; -0.894427; 0.000000;,
       0.182574; -0.912871; 0.365148;,
       -0.182574; 0.912871; 0.365148;,
       0.436436; 0.872872; 0.218218;,
       -0.436436; -0.872872; 0.218218;,
       -0.666667; 0.333333; 0.666667;,
       -0.408248; -0.816497; 0.408248;;
       38;
       3;0, 1, 2;,
       3;1, 0, 3;,
       3;4, 5, 6;,
       3;5, 4, 7;,
       3;2, 8, 9;,
       3;8, 2, 1;,
       3;10, 11, 12;,
       3;11, 10, 13;,
       3;14, 15, 16;,
       3;15, 14, 17;,
       3;1, 18, 8;,
       3;18, 1, 19;,
       3;20, 6, 21;,
       3;6, 20, 4;,
       3;22, 23, 24;,
       3;23, 22, 25;,
       3;21, 22, 26;,
       3;22, 21, 6;,
       3;27, 28, 29;,
       3;28, 27, 30;,
       3;26, 24, 31;,
       3;24, 26, 22;,
       3;32, 33, 3;,
       3;33, 32, 34;,
       3;35, 36, 37;,
       3;36, 35, 38;,
       3;39, 29, 40;,
       3;29, 39, 27;,
       3;41, 42, 43;,
       3;42, 41, 44;,
       3;45, 46, 47;,
       3;46, 45, 48;,
       3;49, 3, 0;,
       3;3, 49, 32;,
       3;50, 51, 52;,
       3;51, 50, 53;,
       3;17, 54, 15;,
       3;54, 17, 55;;
      }

      MeshTextureCoords {
       56;
       0.428218; 0.500500;,
       0.076733; 0.489250;,
       0.076733; 0.500500;,
       0.428218; 0.489250;,
       0.000000; 0.489250;,
       0.076733; 0.475500;,
       0.076733; 0.489250;,
       0.000000; 0.475500;,
       0.000000; 0.489250;,
       0.000000; 0.500500;,
       0.007875; 0.000000;,
       0.017500; 0.500000;,
       0.007875; 0.500000;,
       0.017500; 0.000000;,
       0.000000; 0.500000;,
       0.007875; 0.000000;,
       0.000000; 0.000000;,
       0.007875; 0.500000;,
       0.000000; 0.475500;,
       0.076733; 0.475500;,
       0.000000; 0.500500;,
       0.076733; 0.500500;,
       0.428218; 0.489250;,
       0.500000; 0.475500;,
       0.500000; 0.489250;,
       0.428218; 0.475500;,
       0.428218; 0.500500;,
       0.007875; 0.000000;,
       0.017500; 0.500000;,
       0.007875; 0.500000;,
       0.017500; 0.000000;,
       0.500000; 0.500500;,
       0.500000; 0.489250;,
       0.428218; 0.475500;,
       0.500000; 0.475500;,
       0.071782; 0.000000;,
       0.000000; 0.500000;,
       0.000000; 0.000000;,
       0.071782; 0.500000;,
       0.000000; 0.000000;,
       0.000000; 0.500000;,
       0.007875; 0.500000;,
       0.017500; 0.000000;,
       0.007875; 0.000000;,
       0.017500; 0.500000;,
       0.426267; 0.500000;,
       0.500000; 0.000000;,
       0.500000; 0.500000;,
       0.426267; 0.000000;,
       0.500000; 0.500500;,
       0.426267; 0.500000;,
       0.071782; 0.000000;,
       0.426267; 0.000000;,
       0.071782; 0.500000;,
       0.017500; 0.000000;,
       0.017500; 0.500000;;
      }

      FVFData {
       258;
       112;
       0,
       1065353216,
       0,
       1065353216,
       0,
       1065353216,
       0,
       1065353216,
       0,
       1065353216,
       0,
       1065353216,
       0,
       1065353216,
       0,
       1065353216,
       0,
       1065353216,
       0,
       1065353216,
       0,
       1065353216,
       0,
       1065353216,
       0,
       1065353216,
       0,
       1065353216,
       0,
       1065353216,
       0,
       1065353216,
       0,
       1065353216,
       0,
       1065353216,
       0,
       1065353216,
       0,
       1065353216,
       0,
       1065353216,
       0,
       1065353216,
       0,
       1065353216,
       0,
       1065353216,
       0,
       1065353216,
       0,
       1065353216,
       0,
       1065353216,
       0,
       1065353216,
       0,
       1065353216,
       0,
       1065353216,
       0,
       1065353216,
       0,
       1065353216,
       0,
       1065353216,
       0,
       1065353216,
       0,
       1065353216,
       0,
       1065353216,
       0,
       1065353216,
       0,
       1065353216,
       0,
       1065353216,
       0,
       1065353216,
       0,
       1065353216,
       0,
       1065353216,
       0,
       1065353216,
       0,
       1065353216,
       0,
       1065353216,
       0,
       1065353216,
       0,
       1065353216,
       0,
       1065353216,
       0,
       1065353216,
       0,
       1065353216,
       0,
       1065353216,
       0,
       1065353216,
       0,
       1065353216,
       0,
       1065353216,
       0,
       1065353216,
       0,
       1065353216;
      }

      MeshMaterialList {
       1;
       38;
       0,
       0,
       0,
       0,
       0,
       0,
       0,
       0,
       0,
       0,
       0,
       0,
       0,
       0,
       0,
       0,
       0,
       0,
       0,
       0,
       0,
       0,
       0,
       0,
       0,
       0,
       0,
       0,
       0,
       0,
       0,
       0,
       0,
       0,
       0,
       0,
       0,
       0;

       Material doors_monitor {
        1.000000; 1.000000; 1.000000; 1.000000;;
        128.000000;
        0.200000; 0.200000; 0.200000;;
        0.000000; 0.000000; 0.000000;;

        TextureFilename {
         "D:\\new packs\\test\\doors_monitor_d.tga";
        }
       }

      }

      XSkinMeshHeader {
       1;
       1;
       1;
      }

      SkinWeights {
       "Falloff";
       56;
       0,
       1,
       2,
       3,
       4,
       5,
       6,
       7,
       8,
       9,
       10,
       11,
       12,
       13,
       14,
       15,
       16,
       17,
       18,
       19,
       20,
       21,
       22,
       23,
       24,
       25,
       26,
       27,
       28,
       29,
       30,
       31,
       32,
       33,
       34,
       35,
       36,
       37,
       38,
       39,
       40,
       41,
       42,
       43,
       44,
       45,
       46,
       47,
       48,
       49,
       50,
       51,
       52,
       53,
       54,
       55;
       0.000000,
       0.000000,
       0.000000,
       0.000000,
       0.000000,
       0.000000,
       0.000000,
       0.000000,
       0.000000,
       0.000000,
       0.000000,
       0.000000,
       0.000000,
       0.000000,
       0.000000,
       0.000000,
       0.000000,
       0.000000,
       0.000000,
       0.000000,
       0.000000,
       0.000000,
       0.000000,
       0.000000,
       0.000000,
       0.000000,
       0.000000,
       0.000000,
       0.000000,
       0.000000,
       0.000000,
       0.000000,
       0.000000,
       0.000000,
       0.000000,
       0.000000,
       0.000000,
       0.000000,
       0.000000,
       0.000000,
       0.000000,
       0.000000,
       0.000000,
       0.000000,
       0.000000,
       0.000000,
       0.000000,
       0.000000,
       0.000000,
       0.000000,
       0.000000,
       0.000000,
       0.000000,
       0.000000,
       0.000000,
       0.000000;
          1.000000, -0.000000, 0.000000, 0.000000,
          -0.000000, 1.000000, -0.000000, 0.000000,
          0.000000, -0.000000, 1.000000, 0.000000,
          -0.000000, -0.000000, -0.000000, 1.000000;;
      }


     }
   }
